<svg width="15" height="20" viewBox="0 0 15 20" fill="none" xmlns="http://www.w3.org/2000/svg">
<path d="M1.15588 10.9142H4.24588V18.1142C4.24588 19.1742 5.56588 19.6742 6.26588 18.8742L13.8359 10.2742C14.4959 9.52425 13.9659 8.35425 12.9659 8.35425H9.87588V1.15425C9.87588 0.0942467 8.55588 -0.405753 7.85588 0.394247L0.285876 8.99425C-0.364124 9.74425 0.165876 10.9142 1.15588 10.9142Z" fill="#292D32"/>
</svg>
